
    <svg viewBox="0 0 800 300" xmlns="http://www.w3.org/2000/svg">
        <style>.bg {
            fill: white;
        }
        text {
            font-family: "Antifascist Magick Runes";
            font-size: 72pt;
        }
        .red {
            fill: red;
        }
        .ref {
            font-family: "Noto Sans";
            font-size: 0.5em;
            fill: darkgrey;
            letter-spacing: 30;
        }
        .w-ref {
            font-family: "Noto Sans";
            font-size: 0.25em;
            fill: darkgrey;
            word-spacing: 15;
        }
        </style>
        <rect x="0" y="0" width="100%" height="100%" class="bg" />
        <text x="50%" y="50%" dominant-baseline="middle" text-anchor="middle">
        <tspan x="50%" dy="-0.75em">The only good Nazi</tspan>
        <tspan x="50%" dy="1.5em">is one that is dead</tspan>
    </text>
    </svg>