
    <svg viewBox="0 0 800 4620" xmlns="http://www.w3.org/2000/svg">
        <style>.bg {
            fill: white;
        }
        text {
            font-family: "Antifascist Magick Runes";
            font-size: 72pt;
        }
        .red {
            fill: red;
        }
        .ref {
            font-family: "Noto Sans";
            font-size: 0.5em;
            fill: darkgrey;
            letter-spacing: 30;
        }
        .w-ref {
            font-family: "Noto Sans";
            font-size: 0.25em;
            fill: darkgrey;
            word-spacing: 15;
        }
        </style>
        <rect x="0" y="0" width="100%" height="100%" class="bg" />
        <text x="50%" y="1em" dominant-baseline="middle" text-anchor="middle">
        <tspan style="font-weight: 100" letter-spacing="20">A</tspan>
    
        <tspan style="font-weight: 200" letter-spacing="20">A</tspan>
    
        <tspan style="font-weight: 300" letter-spacing="20">A</tspan>
    
        <tspan style="font-weight: 400" letter-spacing="20">A</tspan>
    
        <tspan style="font-weight: 500" letter-spacing="20">A</tspan>
    
        <tspan style="font-weight: 600" letter-spacing="20">A</tspan>
    
        <tspan style="font-weight: 700" letter-spacing="20">A</tspan>
    
        <tspan style="font-weight: 800" letter-spacing="20">A</tspan>
    
        <tspan style="font-weight: 900" letter-spacing="20">A</tspan>
    
        <tspan x="50%" dy="2em" class="w-ref">100 200 300 400 500 600 700 800 900</tspan>
    
        <tspan x="50%" dy="1.5em" letter-spacing="20">!&quot;#$%&amp;&apos;()*+,</tspan>
        <tspan x="50%" dy="1.5em" class="ref">!&quot;#$%&amp;&apos;()*+,</tspan>
        <tspan x="50%" dy="1.5em" letter-spacing="20">-./012345678</tspan>
        <tspan x="50%" dy="1.5em" class="ref">-./012345678</tspan>
        <tspan x="50%" dy="1.5em" letter-spacing="20">9:;&lt;=&gt;?@ABCD</tspan>
        <tspan x="50%" dy="1.5em" class="ref">9:;&lt;=&gt;?@ABCD</tspan>
        <tspan x="50%" dy="1.5em" letter-spacing="20">EFGHIJKLMNOP</tspan>
        <tspan x="50%" dy="1.5em" class="ref">EFGHIJKLMNOP</tspan>
        <tspan x="50%" dy="1.5em" letter-spacing="20">QRSTUVWXYZ[\</tspan>
        <tspan x="50%" dy="1.5em" class="ref">QRSTUVWXYZ[\</tspan>
        <tspan x="50%" dy="1.5em" letter-spacing="20">]^_`abcdefgh</tspan>
        <tspan x="50%" dy="1.5em" class="ref">]^_`abcdefgh</tspan>
        <tspan x="50%" dy="1.5em" letter-spacing="20">ijklmnopqrst</tspan>
        <tspan x="50%" dy="1.5em" class="ref">ijklmnopqrst</tspan>
        <tspan x="50%" dy="1.5em" letter-spacing="20">uvwxyz{|}~¡¢</tspan>
        <tspan x="50%" dy="1.5em" class="ref">uvwxyz{|}~¡¢</tspan>
        <tspan x="50%" dy="1.5em" letter-spacing="20">£¤¥¦§¨©«¬®¯°</tspan>
        <tspan x="50%" dy="1.5em" class="ref">£¤¥¦§¨©«¬®¯°</tspan>
        <tspan x="50%" dy="1.5em" letter-spacing="20">±´µ·»¿ÁÄÅÆÉÍ</tspan>
        <tspan x="50%" dy="1.5em" class="ref">±´µ·»¿ÁÄÅÆÉÍ</tspan>
        <tspan x="50%" dy="1.5em" letter-spacing="20">ÐÓÖ×ØÚÝÞáäåæ</tspan>
        <tspan x="50%" dy="1.5em" class="ref">ÐÓÖ×ØÚÝÞáäåæ</tspan>
        <tspan x="50%" dy="1.5em" letter-spacing="20">éíðóöøúýþᚠᚡᚢ</tspan>
        <tspan x="50%" dy="1.5em" class="ref">éíðóöøúýþᚠᚡᚢ</tspan>
        <tspan x="50%" dy="1.5em" letter-spacing="20">ᚣᚤᚥᚦᚧᚨᚩᚪᚫᚬᚭᚮ</tspan>
        <tspan x="50%" dy="1.5em" class="ref">ᚣᚤᚥᚦᚧᚨᚩᚪᚫᚬᚭᚮ</tspan>
        <tspan x="50%" dy="1.5em" letter-spacing="20">ᚯᚰᚱᚲᚳᚴᚵᚶᚷᚸᚹᚺ</tspan>
        <tspan x="50%" dy="1.5em" class="ref">ᚯᚰᚱᚲᚳᚴᚵᚶᚷᚸᚹᚺ</tspan>
        <tspan x="50%" dy="1.5em" letter-spacing="20">ᚻᚼᚽᚾᚿᛀᛁᛂᛃᛄᛅᛆ</tspan>
        <tspan x="50%" dy="1.5em" class="ref">ᚻᚼᚽᚾᚿᛀᛁᛂᛃᛄᛅᛆ</tspan>
        <tspan x="50%" dy="1.5em" letter-spacing="20">ᛇᛈᛉᛊᛋᛌᛍᛎᛏᛐᛑᛒ</tspan>
        <tspan x="50%" dy="1.5em" class="ref">ᛇᛈᛉᛊᛋᛌᛍᛎᛏᛐᛑᛒ</tspan>
        <tspan x="50%" dy="1.5em" letter-spacing="20">ᛓᛔᛕᛖᛗᛘᛙᛚᛛᛜᛝᛞ</tspan>
        <tspan x="50%" dy="1.5em" class="ref">ᛓᛔᛕᛖᛗᛘᛙᛚᛛᛜᛝᛞ</tspan>
        <tspan x="50%" dy="1.5em" letter-spacing="20">ᛟᛠᛡᛢᛣᛤᛥᛦᛧᛨᛩᛪ</tspan>
        <tspan x="50%" dy="1.5em" class="ref">ᛟᛠᛡᛢᛣᛤᛥᛦᛧᛨᛩᛪ</tspan>
        <tspan x="50%" dy="1.5em" letter-spacing="20">᛫᛬᛭ᛮᛯᛰᛱᛲᛳᛴᛵᛶ</tspan>
        <tspan x="50%" dy="1.5em" class="ref">᛫᛬᛭ᛮᛯᛰᛱᛲᛳᛴᛵᛶ</tspan>
        <tspan x="50%" dy="1.5em" letter-spacing="20">ᛷᛸ€∞≠♥</tspan>
        <tspan x="50%" dy="1.5em" class="ref">ᛷᛸ€∞≠♥</tspan></text>
    </svg>